{
  "artifactGenerations" : [ ],
  "artifactId" : "oms",
  "groupId" : "org.valid.id",
  "metamodelDependencies" : [ ],
  "projectDependencies" : [ ],
  "projectId" : "SAMPLE-46809881",
  "projectStructureVersion" : {
    "extensionVersion" : 1,
    "version" : 13
  }
}